<?xml version="1.0" encoding="utf-8"?>
<!-- Generator: Adobe Illustrator 21.1.0, SVG Export Plug-In . SVG Version: 6.00 Build 0)  -->
<svg version="1.1" id="Layer_1" xmlns="http://www.w3.org/2000/svg" xmlns:xlink="http://www.w3.org/1999/xlink" x="0px" y="0px"
	 viewBox="0 0 56 49.7" style="enable-background:new 0 0 56 49.7;" xml:space="preserve">
<style type="text/css">
	.st0{fill:#FFB623;}
</style>
<g>
	<circle class="st0" cx="29" cy="26.7" r="18.3"/>
</g>
<g>
	<path d="M29,18.4c0.4,0,0.8,0.2,1.1,0.5l9.7,9.7c0.6,0.6,0.6,1.6,0,2.2s-1.6,0.6-2.2,0L29,22.2l-8.6,8.6c-0.6,0.6-1.6,0.6-2.2,0
		s-0.6-1.6,0-2.2l9.7-9.7C28.2,18.5,28.6,18.4,29,18.4L29,18.4z"/>
</g>
</svg>
